area,monthly_rent
Bedsitters to let in Donholm,"
                                                6,000 KES                    "
NEAT BEDSITTER AT NGARA NEAR FIG TREE,"
                                                6,500 KES                    "
Bedsitters to let in juja,"
                                                5,500 KES                    "
CLEAN  BEDSITTER TO LET  AT NAIROBI WEST,"
                                                7,500 KES                    "
Bedsitters to let in Roysambu,"
                                                6,000 KES                    "
Bedsitter tolet in Nairobi west,"
                                                7,000 KES                    "
Bedsitters to let in Ruaka,"
                                                6,000 KES                    "
Bedsitters to let in Hurlingham,"
                                                6,000 KES                    "
